[
  {
    "title": "Transliton",
    "subtitle": "",
    "size": "is-half",
    "description": "Translit is a method of encoding Cyrillic letters with Latin ones",
    "icon": "static/translit.svg",
    "showScreenshot": true,
    "screenshot": "static/screenshots/translit_electron.png",
    "online": "https://anufrij.de/translit/",
    "sourcecode": "https://gitlab.com/artemanufrij/anufrij-translit",
    "componentName": "Translit"
  },
  {
    "title": "Monitor",
    "subtitle": "",
    "size": "is-half",
    "description": "Slim monitoring for Linux server",
    "icon": "static/translit.svg",
    "showScreenshot": true,
    "screenshot": "static/screenshots/monitor_electron.png",
    "online": "https://home.anufrij.de/monitor/",
    "sourcecode": "https://gitlab.com/artemanufrij/anufrij-monitor",
    "componentName": "Monitor"
  }
]
